{
  "name": "booking",
  "base": "PersistedModel",
  "idInjection": true,
  "options": {
    "validateUpsert": true
  },
  "properties": {
    "id": {
      "type": "number"
    }
  },
  "validations": [],
  "relations": {
    "schedule": {
      "type": "belongsTo",
      "model": "schedule",
      "foreignKey": ""
    },
    "patient": {
      "type": "belongsTo",
      "model": "patient",
      "foreignKey": ""
    }
  },
  "acls": [],
  "methods": {}
}
