{
  "bookingcare": {
    "host": "127.0.0.1",
    "port": 3306,
    "url": "",
    "database": "BookingCare",
    "password": "huynhquangnam",
    "name": "bookingcare",
    "user": "root",
    "connector": "mysql"
  },
  "storageIMG": {
    "name": "storageIMG",
    "connector": "loopback-component-storage",
    "provider": "filesystem",
    "root": "./files",
    "maxFileSize": "10485760"
  }
}
