{
  "_meta": {
    "sources": [
      "loopback/common/models",
      "loopback/server/models",
      "../common/models",
      "./models"
    ],
    "mixins": [
      "loopback/common/mixins",
      "loopback/server/mixins",
      "../common/mixins",
      "./mixins"
    ]
  },
  "User": {
    "dataSource": "bookingcare"
  },
  "AccessToken": {
    "dataSource": "bookingcare",
    "public": false
  },
  "ACL": {
    "dataSource": "bookingcare",
    "public": false
  },
  "RoleMapping": {
    "dataSource": "bookingcare",
    "public": false,
    "options": {
      "strictObjectIDCoercion": true
    }
  },
  "Role": {
    "dataSource": "bookingcare",
    "public": false
  },
  "doctor": {
    "dataSource": "bookingcare",
    "public": true
  },
  "patient": {
    "dataSource": "bookingcare",
    "public": true
  },
  "admin": {
    "dataSource": "bookingcare",
    "public": true
  },
  "specialist": {
    "dataSource": "bookingcare",
    "public": true
  },
  "schedule": {
    "dataSource": "bookingcare",
    "public": true
  },
  "booking": {
    "dataSource": "bookingcare",
    "public": true
  },
  "district": {
    "dataSource": "bookingcare",
    "public": true
  },
  "province": {
    "dataSource": "bookingcare",
    "public": true
  },
  "upload": {
    "dataSource": "storageIMG",
    "public": true
  },
  "support": {
    "dataSource": "bookingcare",
    "public": true
  }
}
